<?xml version="1.0" encoding="iso-8859-1"?>
<!-- Generator: Adobe Illustrator 15.1.0, SVG Export Plug-In . SVG Version: 6.00 Build 0)  -->
<!DOCTYPE svg PUBLIC "-//W3C//DTD SVG 1.1//EN" "http://www.w3.org/Graphics/SVG/1.1/DTD/svg11.dtd">
<svg version="1.1" id="&#x5716;&#x5C64;_1" xmlns="http://www.w3.org/2000/svg" xmlns:xlink="http://www.w3.org/1999/xlink" x="0px"
	 y="0px" width="34px" height="43px" viewBox="0 0 34 43" style="enable-background:new 0 0 34 43;" xml:space="preserve">
<g>
	<g>
		<path style="fill:#333333;" d="M23.24-0.02H0V43h33.698V10.438L23.24-0.02z M23.66,2.428l7.59,7.591h-7.59V2.428z M32.265,41.565
			H1.434V1.414h20.793v10.038h10.038V41.565z M13.623,15.754c0,0.396,0.321,0.717,0.717,0.717h11.472
			c0.396,0,0.717-0.32,0.717-0.717s-0.321-0.717-0.717-0.717H14.34C13.944,15.037,13.623,15.357,13.623,15.754z M11.741,13.043
			l-3.084,2.468l-0.98-0.98c-0.28-0.28-0.733-0.28-1.014,0c-0.281,0.28-0.281,0.733,0,1.014l1.434,1.435
			c0.139,0.139,0.323,0.21,0.507,0.21c0.158,0,0.316-0.052,0.448-0.157l3.585-2.868c0.31-0.248,0.359-0.699,0.112-1.008
			C12.501,12.846,12.05,12.796,11.741,13.043z M25.812,22.924H14.34c-0.396,0-0.717,0.32-0.717,0.717s0.321,0.718,0.717,0.718
			h11.472c0.396,0,0.717-0.321,0.717-0.718S26.207,22.924,25.812,22.924z M11.741,20.93l-3.084,2.468l-0.98-0.98
			c-0.28-0.28-0.733-0.28-1.014,0c-0.281,0.28-0.281,0.733,0,1.014l1.434,1.435c0.139,0.139,0.323,0.21,0.507,0.21
			c0.158,0,0.316-0.052,0.448-0.157l3.585-2.868c0.31-0.248,0.359-0.699,0.112-1.008C12.501,20.732,12.05,20.683,11.741,20.93z
			 M25.812,30.811H14.34c-0.396,0-0.717,0.321-0.717,0.718s0.321,0.717,0.717,0.717h11.472c0.396,0,0.717-0.32,0.717-0.717
			S26.207,30.811,25.812,30.811z M11.741,28.817l-3.084,2.467l-0.98-0.98c-0.28-0.28-0.733-0.28-1.014,0
			c-0.281,0.28-0.281,0.733,0,1.015l1.434,1.434c0.139,0.139,0.323,0.21,0.507,0.21c0.158,0,0.316-0.052,0.448-0.157l3.585-2.867
			c0.31-0.249,0.359-0.699,0.112-1.009C12.501,28.619,12.05,28.569,11.741,28.817z"/>
	</g>
</g>
</svg>
